﻿newmtl /Game/ConiferSrt/Conifer_Opaque_Branch_Mat_Conifer_Opaque_Branch_Mat
	map_Kd Conifer_Opaque_Branch_Mat_Conifer_Opaque_Branch_Mat_D.bmp
	map_Ks Conifer_Opaque_Branch_Mat_Conifer_Opaque_Branch_Mat_S.bmp
	bump Conifer_Opaque_Branch_Mat_Conifer_Opaque_Branch_Mat_N.bmp

newmtl /Game/ConiferSrt/Conifer_TwoSided_Leaf_Mat_Conifer_TwoSided_Leaf_Mat
	map_Kd Conifer_TwoSided_Leaf_Mat_Conifer_TwoSided_Leaf_Mat_D.bmp
	map_Ks Conifer_TwoSided_Leaf_Mat_Conifer_TwoSided_Leaf_Mat_S.bmp
	bump Conifer_TwoSided_Leaf_Mat_Conifer_TwoSided_Leaf_Mat_N.bmp

