# Wavefront Object Material File
# Generated using SpeedTree tools

newmtl Oak_Coastal_leaf_1_spring_Mat
map_Kd Oak_Coastal_leaf_1_spring.png
map_d Oak_Coastal_leaf_1_spring_Opacity.png
map_bump Oak_Coastal_leaf_1_spring_Normal.png
bump Oak_Coastal_leaf_1_spring_Normal.png -bm 1
Ns 128
illum 2


newmtl Oak_Coastal_leaf_1_spring_v2_Mat
map_Kd Oak_Coastal_leaf_1_spring_v2.png
map_d Oak_Coastal_leaf_1_spring_Opacity.png
map_bump Oak_Coastal_leaf_1_spring_Normal.png
bump Oak_Coastal_leaf_1_spring_Normal.png -bm 1
Ns 128
illum 2


newmtl Oak_Coastal_leaf_1_spring_v3_Mat
map_Kd Oak_Coastal_leaf_1_spring_v3.png
map_d Oak_Coastal_leaf_1_spring_Opacity.png
map_bump Oak_Coastal_leaf_1_spring_Normal.png
bump Oak_Coastal_leaf_1_spring_Normal.png -bm 1
Ns 128
illum 2


newmtl Oak_Coastal_leaf_1_spring_v4_Mat
map_Kd Oak_Coastal_leaf_1_spring_v4.png
map_d Oak_Coastal_leaf_1_spring_Opacity.png
map_bump Oak_Coastal_leaf_1_spring_Normal.png
bump Oak_Coastal_leaf_1_spring_Normal.png -bm 1
Ns 128
illum 2


newmtl Oak_Coastal_leaf_2_spring_Mat
map_Kd Oak_Coastal_leaf_2_spring.png
map_d Oak_Coastal_leaf_2_spring_Opacity.png
map_bump Oak_Coastal_leaf_2_spring_Normal.png
bump Oak_Coastal_leaf_2_spring_Normal.png -bm 1
Ns 128
illum 2


newmtl Oak_Coastal_leaf_2_spring_v2_Mat
map_Kd Oak_Coastal_leaf_2_spring_v2.png
map_d Oak_Coastal_leaf_2_spring_Opacity.png
map_bump Oak_Coastal_leaf_2_spring_Normal.png
bump Oak_Coastal_leaf_2_spring_Normal.png -bm 1
Ns 128
illum 2


newmtl Oak_Coastal_leaf_2_spring_v3_Mat
map_Kd Oak_Coastal_leaf_2_spring_v3.png
map_d Oak_Coastal_leaf_2_spring_Opacity.png
map_bump Oak_Coastal_leaf_2_spring_Normal.png
bump Oak_Coastal_leaf_2_spring_Normal.png -bm 1
Ns 128
illum 2


newmtl Oak_Coastal_leaf_2_spring_v4_Mat
map_Kd Oak_Coastal_leaf_2_spring_v4.png
map_d Oak_Coastal_leaf_2_spring_Opacity.png
map_bump Oak_Coastal_leaf_2_spring_Normal.png
bump Oak_Coastal_leaf_2_spring_Normal.png -bm 1
Ns 128
illum 2


newmtl Oak_bark_2_Mat
map_Kd Oak_bark_2.png
map_d 
map_bump Oak_bark_2_Normal.png
bump Oak_bark_2_Normal.png -bm 1
Ns 128
illum 2


